(2, "['Delta_{1,1,1}', 'Delta_{1,1,2}', 'Delta_{1,2,1}', 'Delta_{1,2,2}']")
(3, "['Delta_{1,1,1}', 'Delta_{1,1,2}', 'Delta_{1,1,3}', 'Delta_{1,2,1}', 'Delta_{1,2,2}', 'Delta_{1,2,3}', 'Delta_{1,3,1}', 'Delta_{1,3,2}', 'Delta_{1,3,3}']")
(4, "['Delta_{1,1,1}', 'Delta_{1,1,2}', 'Delta_{1,1,3}', 'Delta_{1,1,4}', 'Delta_{1,2,1}', 'Delta_{1,2,2}', 'Delta_{1,2,3}', 'Delta_{1,2,4}', 'Delta_{1,3,1}', 'Delta_{1,3,2}', 'Delta_{1,3,3}', 'Delta_{1,3,4}', 'Delta_{1,4,1}', 'Delta_{1,4,2}', 'Delta_{1,4,3}', 'Delta_{1,4,4}']")
(5, "['Delta_{1,1,1}', 'Delta_{1,1,2}', 'Delta_{1,1,3}', 'Delta_{1,1,4}', 'Delta_{1,1,5}', 'Delta_{1,2,1}', 'Delta_{1,2,2}', 'Delta_{1,2,3}', 'Delta_{1,2,4}', 'Delta_{1,2,5}', 'Delta_{1,3,1}', 'Delta_{1,3,2}', 'Delta_{1,3,3}', 'Delta_{1,3,4}', 'Delta_{1,3,5}', 'Delta_{1,4,1}', 'Delta_{1,4,2}', 'Delta_{1,4,3}', 'Delta_{1,4,4}', 'Delta_{1,4,5}', 'Delta_{1,5,1}', 'Delta_{1,5,2}', 'Delta_{1,5,3}', 'Delta_{1,5,4}', 'Delta_{1,5,5}']")
(6, "['Delta_{1,1,1}', 'Delta_{1,1,2}', 'Delta_{1,1,3}', 'Delta_{1,1,4}', 'Delta_{1,1,5}', 'Delta_{1,1,6}', 'Delta_{1,2,1}', 'Delta_{1,2,2}', 'Delta_{1,2,3}', 'Delta_{1,2,4}', 'Delta_{1,2,5}', 'Delta_{1,2,6}', 'Delta_{1,3,1}', 'Delta_{1,3,2}', 'Delta_{1,3,3}', 'Delta_{1,3,4}', 'Delta_{1,3,5}', 'Delta_{1,3,6}', 'Delta_{1,4,1}', 'Delta_{1,4,2}', 'Delta_{1,4,3}', 'Delta_{1,4,4}', 'Delta_{1,4,5}', 'Delta_{1,4,6}', 'Delta_{1,5,1}', 'Delta_{1,5,2}', 'Delta_{1,5,3}', 'Delta_{1,5,4}', 'Delta_{1,5,5}', 'Delta_{1,5,6}', 'Delta_{1,6,1}', 'Delta_{1,6,2}', 'Delta_{1,6,3}', 'Delta_{1,6,4}', 'Delta_{1,6,5}', 'Delta_{1,6,6}']")
(7, "['Delta_{1,1,1}', 'Delta_{1,1,2}', 'Delta_{1,1,3}', 'Delta_{1,1,4}', 'Delta_{1,1,5}', 'Delta_{1,1,6}', 'Delta_{1,1,7}', 'Delta_{1,2,1}', 'Delta_{1,2,2}', 'Delta_{1,2,3}', 'Delta_{1,2,4}', 'Delta_{1,2,5}', 'Delta_{1,2,6}', 'Delta_{1,2,7}', 'Delta_{1,3,1}', 'Delta_{1,3,2}', 'Delta_{1,3,3}', 'Delta_{1,3,4}', 'Delta_{1,3,5}', 'Delta_{1,3,6}', 'Delta_{1,3,7}', 'Delta_{1,4,1}', 'Delta_{1,4,2}', 'Delta_{1,4,3}', 'Delta_{1,4,4}', 'Delta_{1,4,5}', 'Delta_{1,4,6}', 'Delta_{1,4,7}', 'Delta_{1,5,1}', 'Delta_{1,5,2}', 'Delta_{1,5,3}', 'Delta_{1,5,4}', 'Delta_{1,5,5}', 'Delta_{1,5,6}', 'Delta_{1,5,7}', 'Delta_{1,6,1}', 'Delta_{1,6,2}', 'Delta_{1,6,3}', 'Delta_{1,6,4}', 'Delta_{1,6,5}', 'Delta_{1,6,6}', 'Delta_{1,6,7}', 'Delta_{1,7,1}', 'Delta_{1,7,2}', 'Delta_{1,7,3}', 'Delta_{1,7,4}', 'Delta_{1,7,5}', 'Delta_{1,7,6}', 'Delta_{1,7,7}']")
