([[1, 2, 3, 6], [4], [5], [7]], 'ideal(Delta45,Delta34,Delta67,Delta35,Delta47*Delta56,Delta37*Delta56,Delta37*Delta46)')
([[1, 3, 5], [2, 4, 6], [7]], 'ideal(Delta34,Delta56,Delta12,Delta67,Delta57)')
([[1], [2], [3], [4], [5], [6], [7]], 'ideal(Delta67,Delta57,Delta56,Delta47,Delta46,Delta45,Delta37,Delta36,Delta35,Delta34,Delta27,Delta26,Delta25,Delta24,Delta23,Delta17,Delta16,Delta15,Delta14,Delta13,Delta12)')
([[1, 3, 6], [2, 5, 7], [4]], 'ideal(Delta34,Delta12,Delta67,Delta23*Delta35,Delta13*Delta35,Delta14*Delta23)')
([[1, 2, 4, 7], [3, 5, 6]], 'ideal(Delta45,Delta23,Delta12*Delta24*Delta46)')
([[1, 2, 4, 6], [3, 5, 7]], 'ideal(Delta45,Delta23,Delta67)')
([[1, 3, 4, 6], [2, 5, 7]], 'ideal(Delta45,Delta67,Delta12)')
([[1, 3, 4, 7], [2, 5, 6]], 'ideal(Delta45,Delta12,Delta34*Delta46)')
([[1, 3, 4, 6], [2, 7], [5]], 'ideal(Delta45,Delta12,Delta67,Delta15*Delta23*Delta34)')
([[1, 3, 4, 7], [2, 6], [5]], 'ideal(Delta45,Delta12,Delta34*Delta46,Delta15*Delta23*Delta34,Delta14*Delta23*Delta46)')
([[1, 3, 4, 7], [2, 5], [6]], 'ideal(Delta45,Delta56,Delta12,Delta46)')
([[1, 3, 5, 7], [2, 4], [6]], 'ideal(Delta34,Delta56,Delta12,Delta36*Delta45)')
([[1, 3, 5, 7], [2, 6], [4]], 'ideal(Delta34,Delta56,Delta12,Delta14*Delta23)')
([[1, 4, 5, 7], [2, 6], [3]], 'ideal(Delta56,Delta23,Delta12,Delta13)')
([[1, 3, 4, 5], [2, 6], [7]], 'ideal(Delta56,Delta12,Delta67,Delta57)')
([[1, 3, 4, 5], [2, 7], [6]], 'ideal(Delta56,Delta12,Delta45*Delta57,Delta16*Delta23*Delta34*Delta45,Delta15*Delta23*Delta34*Delta57)')
([[1, 4, 5, 6], [2, 7], [3]], 'ideal(Delta23,Delta12,Delta67,Delta13)')
([[1, 2, 5, 6], [3, 4], [7]], 'ideal(Delta23,Delta67,Delta12*Delta24,Delta27*Delta34*Delta45*Delta56,Delta12*Delta27*Delta45*Delta56)')
([[1, 2, 3], [4, 5], [6, 7]], 'ideal(Delta34,Delta56,Delta23*Delta35,Delta45*Delta57,Delta36*Delta45,Delta23*Delta36,Delta35*Delta57,Delta23*Delta37)')
([[1, 3], [2, 5], [4, 6]], 'ideal(Delta34,Delta12,Delta56,Delta23*Delta35,Delta36*Delta45,Delta23*Delta36,Delta13*Delta35,Delta14*Delta23,Delta13*Delta36)')
([[1, 3], [2, 4], [5, 6]], 'ideal(Delta34,Delta45,Delta12,Delta35,Delta23*Delta36,Delta13*Delta36)')
([[1, 2], [3, 4], [5, 6]], 'ideal(Delta45,Delta23,Delta34*Delta46,Delta12*Delta24,Delta25*Delta34,Delta12*Delta25,Delta24*Delta46,Delta12*Delta26)')
([[1, 4], [2, 5], [3, 6]], 'ideal(Delta45,Delta23,Delta12,Delta56,Delta46,Delta13)')
([[1, 2], [3, 5], [4, 6]], 'ideal(Delta34,Delta23,Delta56,Delta24,Delta12*Delta25,Delta12*Delta26)')
([[1, 2, 3, 5], [4], [6]], 'ideal(Delta34,Delta56,Delta36*Delta45)')
([[1, 3, 5, 6], [2], [4]], 'ideal(Delta34,Delta12,Delta14*Delta23)')
([[1, 3, 4, 6], [2], [5]], 'ideal(Delta45,Delta12,Delta15*Delta23*Delta34)')
([[1, 2, 3, 6], [4], [5]], 'ideal(Delta34,Delta45,Delta35)')
([[1, 2, 5, 6], [3], [4]], 'ideal(Delta34,Delta23,Delta24)')
([[1, 2, 3, 4], [5], [6]], 'ideal(Delta45,Delta56,Delta46)')
([[1, 4, 5, 6], [2], [3]], 'ideal(Delta23,Delta12,Delta13)')
([[1, 2, 4, 6], [3], [5]], 'ideal(Delta45,Delta23,Delta25*Delta34)')
([[1, 3, 4, 5], [2], [6]], 'ideal(Delta12,Delta56,Delta16*Delta23*Delta34*Delta45)')
([[1, 2, 4, 5], [3], [6]], 'ideal(Delta23,Delta56,Delta26*Delta34*Delta45)')
([[1, 2, 5], [3, 6, 7], [4]], 'ideal(Delta34,Delta23,Delta56,Delta24,Delta12*Delta25*Delta57)')
([[1, 2, 3], [4, 6, 7], [5]], 'ideal(Delta45,Delta34,Delta35,Delta23*Delta36,Delta12*Delta23*Delta37)')
([[1, 3, 5], [2, 4, 7], [6]], 'ideal(Delta34,Delta56,Delta12,Delta45*Delta57,Delta36*Delta45,Delta35*Delta57)')
([[1, 3, 5], [2, 6, 7], [4]], 'ideal(Delta34,Delta56,Delta12,Delta14*Delta23,Delta23*Delta35*Delta57,Delta13*Delta35*Delta57)')
([[1, 4, 5], [2, 6, 7], [3]], 'ideal(Delta23,Delta56,Delta12,Delta13,Delta45*Delta57)')
([[1, 2, 6], [3, 5, 7], [4]], 'ideal(Delta34,Delta23,Delta67,Delta24,Delta12*Delta25)')
([[1, 2, 4], [3, 6, 7], [5]], 'ideal(Delta45,Delta23,Delta34*Delta46,Delta25*Delta34,Delta24*Delta46,Delta12*Delta24*Delta47)')
([[1, 2, 4], [3, 5, 7], [6]], 'ideal(Delta45,Delta23,Delta56,Delta46,Delta12*Delta24*Delta47)')
([[1, 3, 4], [2, 5, 7], [6]], 'ideal(Delta45,Delta56,Delta12,Delta46,Delta34*Delta47)')
([[1, 3, 4], [2, 6, 7], [5]], 'ideal(Delta45,Delta12,Delta34*Delta46,Delta23*Delta34*Delta47,Delta15*Delta23*Delta34,Delta14*Delta23*Delta46,Delta13*Delta34*Delta47)')
([[1, 3, 6], [2], [4], [5]], 'ideal(Delta34,Delta45,Delta12,Delta35,Delta14*Delta23,Delta15*Delta23,Delta15*Delta24)')
([[1, 2, 3], [4], [5], [6]], 'ideal(Delta34,Delta45,Delta56,Delta35,Delta46,Delta36)')
([[1, 4, 5], [2], [3], [6]], 'ideal(Delta23,Delta12,Delta56,Delta13,Delta26*Delta34*Delta45,Delta16*Delta34*Delta45,Delta16*Delta24*Delta45,Delta16*Delta25*Delta34)')
([[1, 3, 4], [2], [5], [6]], 'ideal(Delta45,Delta12,Delta56,Delta46,Delta15*Delta23*Delta34,Delta16*Delta23*Delta34,Delta16*Delta23*Delta35,Delta16*Delta25*Delta34)')
([[1, 4, 6], [2], [3], [5]], 'ideal(Delta23,Delta45,Delta12,Delta13,Delta25*Delta34,Delta15*Delta34,Delta15*Delta24)')
([[1, 2, 4], [3], [5], [6]], 'ideal(Delta23,Delta45,Delta56,Delta46,Delta25*Delta34,Delta26*Delta34,Delta26*Delta35)')
([[1, 2, 5], [3], [4], [6]], 'ideal(Delta34,Delta23,Delta56,Delta24,Delta36*Delta45,Delta26*Delta45,Delta26*Delta35)')
([[1, 2, 6], [3], [4], [5]], 'ideal(Delta34,Delta23,Delta45,Delta35,Delta24,Delta25)')
([[1, 3, 5], [2], [4], [6]], 'ideal(Delta34,Delta12,Delta56,Delta36*Delta45,Delta14*Delta23,Delta16*Delta23*Delta45,Delta16*Delta23*Delta35,Delta16*Delta24*Delta45,Delta16*Delta24*Delta35)')
([[1, 5, 6], [2], [3], [4]], 'ideal(Delta34,Delta23,Delta12,Delta24,Delta13,Delta14)')
([[1], [2], [3]], 'ideal(Delta23,Delta13,Delta12)')
([[1, 2, 4, 7], [3], [5], [6]], 'ideal(Delta45,Delta23,Delta56,Delta46,Delta25*Delta34,Delta26*Delta34,Delta26*Delta35)')
([[1, 2, 6], [3, 5], [4]], 'ideal(Delta34,Delta23,Delta24,Delta12*Delta25)')
([[1, 3, 6], [2, 5], [4]], 'ideal(Delta34,Delta12,Delta23*Delta35,Delta14*Delta23,Delta13*Delta35)')
([[1, 2, 6], [3, 4], [5]], 'ideal(Delta23,Delta45,Delta12*Delta24,Delta25*Delta34,Delta12*Delta25)')
([[1, 2, 4], [3, 6], [5]], 'ideal(Delta23,Delta45,Delta34*Delta46,Delta25*Delta34,Delta24*Delta46)')
([[1, 3, 6], [2, 4], [5]], 'ideal(Delta34,Delta45,Delta12,Delta35)')
([[1, 2, 3], [4, 6], [5]], 'ideal(Delta34,Delta45,Delta35,Delta23*Delta36)')
([[1, 2, 4], [3, 5, 6], [7]], 'ideal(Delta45,Delta23,Delta67,Delta47*Delta56,Delta12*Delta24*Delta46,Delta12*Delta24*Delta47)')
([[1, 3, 4], [2, 5, 6], [7]], 'ideal(Delta45,Delta12,Delta67,Delta34*Delta46,Delta34*Delta47,Delta47*Delta56)')
([[1, 2, 3, 6, 7], [4], [5]], 'ideal(Delta45,Delta34,Delta35)')
([[1, 2, 5], [3, 4, 7], [6]], 'ideal(Delta23,Delta56,Delta45*Delta57,Delta12*Delta24,Delta26*Delta34*Delta45,Delta12*Delta26*Delta45,Delta25*Delta34*Delta57,Delta12*Delta25*Delta57)')
([[1, 2, 3], [4, 5, 6], [7]], 'ideal(Delta34,Delta67,Delta23*Delta35,Delta12*Delta23*Delta36,Delta37*Delta45*Delta56,Delta23*Delta37*Delta56,Delta12*Delta23*Delta37)')
([[1, 3, 6], [2, 4, 7], [5]], 'ideal(Delta45,Delta34,Delta12,Delta67,Delta35)')
([[1, 2, 6], [3, 4, 7], [5]], 'ideal(Delta45,Delta23,Delta67,Delta12*Delta24,Delta25*Delta34,Delta12*Delta25)')
([[1, 4, 6], [2, 5, 7], [3]], 'ideal(Delta45,Delta23,Delta12,Delta67,Delta13)')
([[1, 2, 5, 6, 7], [3], [4]], 'ideal(Delta34,Delta23,Delta24)')
([[1, 4, 5, 6, 7], [2], [3]], 'ideal(Delta23,Delta12,Delta13)')
([[1, 2, 4, 5, 6], [3], [7]], 'ideal(Delta23,Delta67,Delta27*Delta34*Delta45*Delta56)')
([[1, 3, 4, 5, 6], [2], [7]], 'ideal(Delta12,Delta67,Delta17*Delta23*Delta34*Delta45*Delta56)')
([[1, 3, 5, 6, 7], [2], [4]], 'ideal(Delta34,Delta12,Delta14*Delta23)')
([[1, 2, 3, 5, 6], [4], [7]], 'ideal(Delta34,Delta67,Delta37*Delta45*Delta56)')
([[1, 2, 4, 6, 7], [3], [5]], 'ideal(Delta45,Delta23,Delta25*Delta34)')
([[1, 2, 4, 5, 7], [3], [6]], 'ideal(Delta56,Delta23,Delta26*Delta34*Delta45)')
([[1], [2], [3], [4], [5], [6]], 'ideal(Delta56,Delta46,Delta45,Delta36,Delta35,Delta34,Delta26,Delta25,Delta24,Delta23,Delta16,Delta15,Delta14,Delta13,Delta12)')
([[1, 2, 3, 4], [5]], 'ideal(Delta45)')
([[1, 2, 3, 5], [4]], 'ideal(Delta34)')
([[1, 2, 4, 5], [3]], 'ideal(Delta23)')
([[1, 3, 4, 5], [2]], 'ideal(Delta12)')
([[1, 2, 6, 7], [3, 4], [5]], 'ideal(Delta45,Delta23,Delta12*Delta24,Delta25*Delta34,Delta12*Delta25)')
([[1, 2, 4, 6], [3, 5], [7]], 'ideal(Delta45,Delta23,Delta67,Delta47*Delta56)')
([[1, 2, 3, 4], [5, 7], [6]], 'ideal(Delta45,Delta56,Delta46,Delta34*Delta47)')
([[1, 2, 3, 4], [5, 6], [7]], 'ideal(Delta45,Delta67,Delta34*Delta46,Delta34*Delta47,Delta47*Delta56)')
([[1, 2, 3, 5], [4, 7], [6]], 'ideal(Delta34,Delta56,Delta45*Delta57,Delta36*Delta45,Delta35*Delta57)')
([[1, 2, 3, 7], [4, 5], [6]], 'ideal(Delta34,Delta56,Delta23*Delta35,Delta36*Delta45,Delta23*Delta36)')
([[1, 2, 5, 7], [3, 6], [4]], 'ideal(Delta34,Delta56,Delta23,Delta24)')
([[1, 2, 4, 5], [3, 7], [6]], 'ideal(Delta56,Delta23,Delta45*Delta57,Delta26*Delta34*Delta45,Delta25*Delta34*Delta57)')
([[1, 2, 4, 6], [3, 7], [5]], 'ideal(Delta45,Delta23,Delta67,Delta25*Delta34)')
([[1, 2, 4, 7], [3, 6], [5]], 'ideal(Delta45,Delta23,Delta34*Delta46,Delta25*Delta34,Delta24*Delta46)')
([[1, 2]], 'ideal(0,0,0,0,0)')
([[1, 2, 3], [4, 6], [5, 7]], 'ideal(Delta45,Delta34,Delta67,Delta35,Delta23*Delta36,Delta23*Delta37)')
([[1, 2, 4], [3, 6], [5, 7]], 'ideal(Delta45,Delta23,Delta67,Delta34*Delta46,Delta25*Delta34,Delta24*Delta46,Delta34*Delta47,Delta47*Delta56,Delta24*Delta47)')
([[1, 3, 4, 7], [2], [5], [6]], 'ideal(Delta45,Delta56,Delta12,Delta46,Delta15*Delta23*Delta34,Delta16*Delta23*Delta34,Delta16*Delta23*Delta35,Delta16*Delta25*Delta34)')
([[1, 2, 7], [3, 4], [5, 6]], 'ideal(Delta45,Delta23,Delta34*Delta46,Delta12*Delta24,Delta25*Delta34,Delta24*Delta46,Delta12*Delta25,Delta12*Delta26)')
([[1, 2, 4], [3, 5], [6, 7]], 'ideal(Delta45,Delta56,Delta23,Delta46,Delta34*Delta47,Delta24*Delta47)')
([[1, 4, 7], [2, 5], [3, 6]], 'ideal(Delta45,Delta56,Delta23,Delta12,Delta46,Delta13)')
([[1, 3, 4], [2, 5], [6, 7]], 'ideal(Delta45,Delta56,Delta12,Delta46,Delta34*Delta47,Delta14*Delta23*Delta47)')
([[1, 2, 3, 5], [4], [6], [7]], 'ideal(Delta34,Delta56,Delta67,Delta57,Delta36*Delta45,Delta37*Delta45,Delta37*Delta46)')
([[1, 2, 3]], 'ideal(0,0,0,0,0,0,0,0,0)')
([[1, 4, 6, 7], [2], [3], [5]], 'ideal(Delta45,Delta23,Delta12,Delta13,Delta25*Delta34,Delta15*Delta34,Delta15*Delta24)')
([[1, 3, 5, 6], [2], [4], [7]], 'ideal(Delta34,Delta12,Delta67,Delta14*Delta23,Delta37*Delta45*Delta56,Delta17*Delta23*Delta45*Delta56,Delta17*Delta23*Delta35*Delta56,Delta17*Delta24*Delta45*Delta56,Delta17*Delta24*Delta35*Delta56,Delta17*Delta23*Delta36*Delta45,Delta17*Delta24*Delta36*Delta45)')
([[1, 3, 6, 7], [2], [4], [5]], 'ideal(Delta45,Delta34,Delta12,Delta35,Delta14*Delta23,Delta15*Delta23,Delta15*Delta24)')
([[1, 3, 4, 6], [2], [5], [7]], 'ideal(Delta45,Delta12,Delta67,Delta47*Delta56,Delta15*Delta23*Delta34,Delta17*Delta23*Delta34*Delta56,Delta17*Delta23*Delta35*Delta56,Delta17*Delta23*Delta34*Delta46,Delta17*Delta23*Delta35*Delta46,Delta17*Delta25*Delta34*Delta56,Delta17*Delta25*Delta34*Delta46)')
([[1, 2], [3]], 'ideal(Delta23)')
([[1, 2, 7], [3, 5], [4, 6]], 'ideal(Delta34,Delta56,Delta23,Delta24,Delta12*Delta25,Delta12*Delta26)')
([[1, 2, 6], [3, 5], [4, 7]], 'ideal(Delta34,Delta23,Delta67,Delta24,Delta12*Delta25,Delta12*Delta27*Delta56)')
([[1, 2, 3, 4], [5], [6], [7]], 'ideal(Delta45,Delta56,Delta67,Delta46,Delta57,Delta47)')
([[1, 2, 6], [3, 4], [5, 7]], 'ideal(Delta45,Delta23,Delta67,Delta12*Delta24,Delta25*Delta34,Delta12*Delta25,Delta12*Delta27*Delta34*Delta46,-Delta12*Delta24*Delta27*Delta46)')
([[1, 3, 5, 7], [2], [4], [6]], 'ideal(Delta34,Delta56,Delta12,Delta36*Delta45,Delta14*Delta23,Delta16*Delta23*Delta45,Delta16*Delta23*Delta35,Delta16*Delta24*Delta45,Delta16*Delta24*Delta35)')
([[1, 2, 3, 7], [4], [5], [6]], 'ideal(Delta45,Delta34,Delta56,Delta35,Delta46,Delta36)')
([[1, 3], [2]], 'ideal(Delta12)')
([[1, 2], [3, 4], [5, 7], [6]], 'ideal(Delta45,Delta23,Delta56,Delta46,Delta12*Delta24,Delta25*Delta34,Delta12*Delta25,Delta34*Delta47,Delta26*Delta34,Delta12*Delta26,Delta24*Delta47,Delta26*Delta35,Delta12*Delta27)')
([[1, 3], [2, 4], [5, 7], [6]], 'ideal(Delta45,Delta34,Delta56,Delta12,Delta35,Delta46,Delta36,Delta23*Delta37,Delta13*Delta37)')
([[1, 2], [3, 5], [4, 7], [6]], 'ideal(Delta34,Delta23,Delta56,Delta24,Delta45*Delta57,Delta36*Delta45,Delta35*Delta57,Delta12*Delta25,Delta26*Delta45,Delta12*Delta26,Delta25*Delta57,Delta26*Delta35,Delta12*Delta27)')
([[1, 4], [2, 5], [3, 7], [6]], 'ideal(Delta45,Delta23,Delta56,Delta12,Delta46,Delta13,Delta34*Delta47,Delta24*Delta47,Delta14*Delta47,Delta16*Delta25*Delta34)')
([[1, 2, 3, 5, 6], [4]], 'ideal(Delta34)')
([[1, 2], [3, 5], [4], [6]], 'ideal(Delta34,Delta23,Delta56,Delta24,Delta36*Delta45,Delta12*Delta25,Delta26*Delta45,Delta12*Delta26,Delta26*Delta35)')
([[1, 4], [2, 6], [3], [5]], 'ideal(Delta23,Delta45,Delta12,Delta13,Delta34*Delta46,Delta25*Delta34,Delta24*Delta46,Delta15*Delta34,Delta14*Delta46,Delta15*Delta24)')
([[1, 2], [3, 4], [5], [6]], 'ideal(Delta23,Delta45,Delta56,Delta46,Delta12*Delta24,Delta25*Delta34,Delta12*Delta25,Delta26*Delta34,Delta12*Delta26,Delta26*Delta35)')
([[1, 4], [2], [3], [5], [6]], 'ideal(Delta23,Delta45,Delta12,Delta56,Delta13,Delta46,Delta25*Delta34,Delta26*Delta34,Delta15*Delta34,Delta26*Delta35,Delta15*Delta24,Delta16*Delta34,Delta16*Delta24,Delta16*Delta35,Delta16*Delta25)')
([[1, 3], [2], [4], [5], [6]], 'ideal(Delta34,Delta45,Delta12,Delta56,Delta35,Delta46,Delta36,Delta14*Delta23,Delta15*Delta23,Delta15*Delta24,Delta16*Delta23,Delta16*Delta24,Delta16*Delta25)')
([[1, 2, 7], [3, 4], [5], [6]], 'ideal(Delta45,Delta23,Delta56,Delta46,Delta12*Delta24,Delta25*Delta34,Delta12*Delta25,Delta26*Delta34,Delta12*Delta26,Delta26*Delta35)')
([[1, 3, 4], [2, 6], [5]], 'ideal(Delta45,Delta12,Delta34*Delta46,Delta15*Delta23*Delta34,Delta14*Delta23*Delta46)')
([[1, 2], [3], [4], [5], [6]], 'ideal(Delta34,Delta23,Delta45,Delta56,Delta24,Delta35,Delta46,Delta25,Delta36,Delta26)')
([[1, 3, 4], [2, 5], [6]], 'ideal(Delta45,Delta12,Delta56,Delta46)')
([[1, 6], [2], [3], [4], [5]], 'ideal(Delta34,Delta23,Delta45,Delta12,Delta24,Delta35,Delta13,Delta25,Delta14,Delta15)')
([[1, 2, 5], [3, 4], [6]], 'ideal(Delta23,Delta56,Delta12*Delta24,Delta26*Delta34*Delta45,Delta12*Delta26*Delta45)')
([[1, 4, 5], [2, 6], [3]], 'ideal(Delta23,Delta12,Delta56,Delta13)')
([[1, 2, 4, 7], [3, 5], [6]], 'ideal(Delta45,Delta56,Delta23,Delta46)')
([[1, 2, 5, 7], [3, 4], [6]], 'ideal(Delta56,Delta23,Delta12*Delta24,Delta26*Delta34*Delta45,Delta12*Delta26*Delta45)')
([[1, 2, 3, 5], [4, 6], [7]], 'ideal(Delta34,Delta56,Delta67,Delta57)')
([[1, 2, 4, 5], [3, 6], [7]], 'ideal(Delta56,Delta23,Delta67,Delta57)')
([[1, 3, 5, 6], [2, 7], [4]], 'ideal(Delta34,Delta12,Delta67,Delta14*Delta23)')
([[1, 3, 5, 6], [2, 4], [7]], 'ideal(Delta34,Delta12,Delta67,Delta37*Delta45*Delta56)')
([[1, 3, 6, 7], [2, 5], [4]], 'ideal(Delta34,Delta12,Delta23*Delta35,Delta13*Delta35,Delta14*Delta23)')
([[1, 3, 6, 7], [2, 4], [5]], 'ideal(Delta34,Delta45,Delta12,Delta35)')
([[1, 4, 6, 7], [2, 5], [3]], 'ideal(Delta45,Delta23,Delta12,Delta13)')
([[1, 3, 4, 6], [2, 5], [7]], 'ideal(Delta45,Delta12,Delta67,Delta47*Delta56)')
([[1, 2, 3, 4, 6], [5], [7]], 'ideal(Delta45,Delta67,Delta47*Delta56)')
([[1, 2, 3, 4, 7], [5], [6]], 'ideal(Delta45,Delta56,Delta46)')
([[1, 3, 4, 5, 7], [2], [6]], 'ideal(Delta56,Delta12,Delta16*Delta23*Delta34*Delta45)')
([[1, 2, 3, 4, 5], [6], [7]], 'ideal(Delta56,Delta67,Delta57)')
([[1, 2, 4], [3, 5], [6]], 'ideal(Delta23,Delta45,Delta56,Delta46)')
([[1, 2, 5], [3, 6], [4]], 'ideal(Delta34,Delta23,Delta56,Delta24)')
([[1, 2, 3], [4, 5], [6]], 'ideal(Delta34,Delta56,Delta23*Delta35,Delta23*Delta36,Delta36*Delta45)')
([[1, 3, 5], [2, 6], [4]], 'ideal(Delta34,Delta12,Delta56,Delta14*Delta23)')
([[1, 3, 5], [2, 4], [6]], 'ideal(Delta34,Delta12,Delta56,Delta36*Delta45)')
([[1, 4, 6], [2, 5], [3]], 'ideal(Delta23,Delta45,Delta12,Delta13)')
([[1, 2, 3, 4, 5, 6]], 'ideal(0,0,0,0,0,0,0,0,0,0,0,0,0,0,0,0,0,0,0,0,0,0,0,0,0,0,0)')
([[1, 2, 3, 4, 5, 6, 7]], 'ideal(0,0,0,0,0,0,0,0,0,0,0,0,0,0,0,0,0,0,0,0,0,0,0,0,0,0,0,0,0,0,0,0,0,0,0)')
([[1, 2], [3, 5], [4]], 'ideal(Delta23,Delta34,Delta24,Delta12*Delta25)')
([[1, 3, 4, 5, 6], [2]], 'ideal(Delta12)')
([[1, 2, 4, 5, 6], [3]], 'ideal(Delta23)')
([[1, 3], [2, 5], [4]], 'ideal(Delta34,Delta12,Delta23*Delta35,Delta14*Delta23,Delta13*Delta35)')
([[1, 2, 3, 4, 6], [5]], 'ideal(Delta45)')
([[1, 2], [3, 4], [5]], 'ideal(Delta23,Delta45,Delta12*Delta24,Delta25*Delta34,Delta12*Delta25)')
([[1, 2, 4], [3]], 'ideal(Delta23)')
([[1, 2, 3], [4]], 'ideal(Delta34)')
([[1, 3, 4], [2]], 'ideal(Delta12)')
([[1, 2, 5, 7], [3, 4, 6]], 'ideal(Delta56,Delta23,Delta12*Delta24)')
([[1, 2, 4, 5], [3, 6, 7]], 'ideal(Delta56,Delta23,Delta45*Delta57)')
([[1, 2, 5, 6], [3, 4, 7]], 'ideal(Delta23,Delta67,Delta12*Delta24)')
([[1, 3, 4, 5], [2, 6, 7]], 'ideal(Delta56,Delta12,Delta45*Delta57)')
([[1, 2, 3, 7], [4, 5, 6]], 'ideal(Delta34,Delta23*Delta35,Delta12*Delta23*Delta36)')
([[1, 2, 3, 6], [4, 5, 7]], 'ideal(Delta34,Delta67,Delta23*Delta35)')
([[1, 2, 3, 5], [4, 6, 7]], 'ideal(Delta34,Delta56,Delta23*Delta35*Delta57)')
([[1, 3, 5, 7], [2, 4, 6]], 'ideal(Delta34,Delta56,Delta12)')
([[1, 3, 5, 6], [2, 4, 7]], 'ideal(Delta34,Delta67,Delta12)')
([[1, 2, 3, 4], [5, 6, 7]], 'ideal(Delta45,Delta34*Delta46,Delta23*Delta34*Delta47)')
([[1, 2, 3], [4, 5], [6], [7]], 'ideal(Delta34,Delta56,Delta67,Delta57,Delta23*Delta35,Delta36*Delta45,Delta23*Delta36,Delta37*Delta45,Delta23*Delta37,Delta37*Delta46)')
([[1, 2, 5], [3, 6], [4], [7]], 'ideal(Delta34,Delta23,Delta56,Delta67,Delta24,Delta57,Delta27*Delta36*Delta45)')
([[1, 2, 5], [3, 7], [4], [6]], 'ideal(Delta34,Delta23,Delta56,Delta24,Delta45*Delta57,Delta36*Delta45,Delta35*Delta57,Delta26*Delta45,Delta25*Delta57,Delta26*Delta35)')
([[1, 2, 6], [3, 5], [4], [7]], 'ideal(Delta34,Delta23,Delta67,Delta24,Delta12*Delta25,Delta37*Delta45*Delta56,Delta27*Delta45*Delta56,Delta12*Delta27*Delta56,Delta27*Delta35*Delta56,Delta27*Delta36*Delta45)')
([[1, 2, 7], [3, 5], [4], [6]], 'ideal(Delta34,Delta23,Delta56,Delta24,Delta36*Delta45,Delta12*Delta25,Delta26*Delta45,Delta12*Delta26,Delta26*Delta35)')
([[1, 3], [2, 4], [5]], 'ideal(Delta34,Delta12,Delta45,Delta35)')
([[1, 2], [3], [4], [5]], 'ideal(Delta23,Delta34,Delta45,Delta24,Delta35,Delta25)')
([[1, 5], [2], [3], [4]], 'ideal(Delta23,Delta34,Delta12,Delta24,Delta13,Delta14)')
([[1, 3], [2], [4], [5]], 'ideal(Delta34,Delta12,Delta45,Delta35,Delta14*Delta23,Delta15*Delta23,Delta15*Delta24)')
([[1, 4], [2], [3], [5]], 'ideal(Delta23,Delta12,Delta45,Delta13,Delta25*Delta34,Delta15*Delta34,Delta15*Delta24)')
([[1, 3, 4, 5], [2], [6], [7]], 'ideal(Delta56,Delta12,Delta67,Delta57,Delta16*Delta23*Delta34*Delta45,Delta17*Delta23*Delta34*Delta45,Delta17*Delta23*Delta34*Delta46,Delta17*Delta23*Delta36*Delta45,Delta17*Delta26*Delta34*Delta45)')
([[1, 4, 5, 6], [2], [3], [7]], 'ideal(Delta23,Delta12,Delta67,Delta13,Delta27*Delta34*Delta45*Delta56,Delta17*Delta34*Delta45*Delta56,Delta17*Delta24*Delta45*Delta56,Delta17*Delta25*Delta34*Delta56,Delta17*Delta26*Delta34*Delta45)')
([[1, 2, 4, 5], [3], [6], [7]], 'ideal(Delta23,Delta56,Delta67,Delta57,Delta26*Delta34*Delta45,Delta27*Delta34*Delta45,Delta27*Delta34*Delta46,Delta27*Delta36*Delta45)')
([[1, 4, 5, 7], [2], [3], [6]], 'ideal(Delta23,Delta56,Delta12,Delta13,Delta26*Delta34*Delta45,Delta16*Delta34*Delta45,Delta16*Delta24*Delta45,Delta16*Delta25*Delta34)')
([[1, 2, 5, 7], [3], [4], [6]], 'ideal(Delta34,Delta23,Delta56,Delta24,Delta36*Delta45,Delta26*Delta45,Delta26*Delta35)')
([[1, 4], [2, 5], [3]], 'ideal(Delta23,Delta12,Delta45,Delta13)')
([[1, 2, 5, 6], [3], [4], [7]], 'ideal(Delta34,Delta23,Delta67,Delta24,Delta37*Delta45*Delta56,Delta27*Delta45*Delta56,Delta27*Delta35*Delta56,Delta27*Delta36*Delta45)')
([[1, 5, 6, 7], [2], [3], [4]], 'ideal(Delta34,Delta23,Delta12,Delta24,Delta13,Delta14)')
([[1, 2, 6, 7], [3], [4], [5]], 'ideal(Delta45,Delta34,Delta23,Delta35,Delta24,Delta25)')
([[1, 2, 4, 6], [3], [5], [7]], 'ideal(Delta45,Delta23,Delta67,Delta25*Delta34,Delta47*Delta56,Delta27*Delta34*Delta56,Delta27*Delta35*Delta56,Delta27*Delta34*Delta46,Delta27*Delta35*Delta46)')
([[1, 2, 3, 4, 5], [6]], 'ideal(Delta56)')
([[1, 3, 5], [2, 4, 6]], 'ideal(Delta34,Delta56,Delta12)')
([[1, 2, 4], [3, 5, 6]], 'ideal(Delta45,Delta23,Delta12*Delta24*Delta46)')
([[1], [2]], 'ideal(Delta12)')
([[1, 2, 5], [3, 6], [4, 7]], 'ideal(Delta34,Delta56,Delta23,Delta67,Delta24,Delta57)')
([[1, 3, 4, 6, 7], [2], [5]], 'ideal(Delta45,Delta12,Delta15*Delta23*Delta34)')
([[1, 2, 3], [4], [5], [6], [7]], 'ideal(Delta34,Delta45,Delta56,Delta67,Delta35,Delta46,Delta57,Delta36,Delta47,Delta37)')
([[1, 3, 6], [2], [4], [5], [7]], 'ideal(Delta34,Delta45,Delta12,Delta67,Delta35,Delta14*Delta23,Delta47*Delta56,Delta37*Delta56,Delta15*Delta23,Delta37*Delta46,Delta15*Delta24,Delta17*Delta23*Delta56,Delta17*Delta24*Delta56,Delta17*Delta23*Delta46,Delta17*Delta24*Delta46,Delta17*Delta23*Delta36,Delta17*Delta25*Delta56,Delta17*Delta24*Delta36,Delta17*Delta25*Delta46,Delta17*Delta25*Delta36)')
([[1, 3, 4], [2], [5], [6], [7]], 'ideal(Delta45,Delta56,Delta12,Delta67,Delta46,Delta57,Delta47,Delta15*Delta23*Delta34,Delta16*Delta23*Delta34,Delta16*Delta23*Delta35,Delta17*Delta23*Delta34,Delta16*Delta25*Delta34,Delta17*Delta23*Delta35,Delta17*Delta23*Delta36,Delta17*Delta25*Delta34,Delta17*Delta26*Delta34,Delta17*Delta26*Delta35)')
([[1, 4, 5], [2], [3], [6], [7]], 'ideal(Delta23,Delta56,Delta12,Delta67,Delta13,Delta57,Delta26*Delta34*Delta45,Delta27*Delta34*Delta45,Delta16*Delta34*Delta45,Delta27*Delta34*Delta46,Delta16*Delta24*Delta45,Delta17*Delta34*Delta45,Delta27*Delta36*Delta45,Delta16*Delta25*Delta34,Delta17*Delta24*Delta45,Delta17*Delta34*Delta46,Delta17*Delta24*Delta46,Delta17*Delta36*Delta45,Delta17*Delta25*Delta34,Delta17*Delta26*Delta34,Delta17*Delta26*Delta45,Delta17*Delta26*Delta35)')
([[1, 2, 6], [3], [4], [5], [7]], 'ideal(Delta34,Delta45,Delta23,Delta67,Delta35,Delta24,Delta25,Delta47*Delta56,Delta37*Delta56,Delta37*Delta46,Delta27*Delta56,Delta27*Delta46,Delta27*Delta36)')
([[1, 4, 6], [2], [3], [5], [7]], 'ideal(Delta45,Delta23,Delta12,Delta67,Delta13,Delta25*Delta34,Delta47*Delta56,Delta15*Delta34,Delta15*Delta24,Delta27*Delta34*Delta56,Delta27*Delta35*Delta56,Delta27*Delta34*Delta46,Delta17*Delta34*Delta56,Delta27*Delta35*Delta46,Delta17*Delta35*Delta56,Delta17*Delta24*Delta56,Delta17*Delta34*Delta46,Delta17*Delta35*Delta46,Delta17*Delta24*Delta46,Delta17*Delta25*Delta56,Delta17*Delta25*Delta46,Delta17*Delta26*Delta34,Delta17*Delta26*Delta35)')
([[1, 2, 7], [3], [4], [5], [6]], 'ideal(Delta34,Delta45,Delta23,Delta56,Delta35,Delta24,Delta46,Delta36,Delta25,Delta26)')
([[1, 6, 7], [2], [3], [4], [5]], 'ideal(Delta34,Delta45,Delta23,Delta12,Delta35,Delta24,Delta13,Delta25,Delta14,Delta15)')
([[1, 4, 7], [2], [3], [5], [6]], 'ideal(Delta45,Delta23,Delta56,Delta12,Delta46,Delta13,Delta25*Delta34,Delta26*Delta34,Delta15*Delta34,Delta26*Delta35,Delta15*Delta24,Delta16*Delta34,Delta16*Delta35,Delta16*Delta24,Delta16*Delta25)')
([[1, 2, 4], [3], [5], [6], [7]], 'ideal(Delta45,Delta23,Delta56,Delta67,Delta46,Delta57,Delta47,Delta25*Delta34,Delta26*Delta34,Delta26*Delta35,Delta27*Delta34,Delta27*Delta35,Delta27*Delta36)')
([[1, 2, 4, 5], [3, 6]], 'ideal(Delta23,Delta56)')
([[1, 2, 4, 6], [3, 5]], 'ideal(Delta45,Delta23)')
([[1, 2, 5, 6], [3, 4]], 'ideal(Delta23,Delta12*Delta24)')
([[1, 3, 4, 5], [2, 6]], 'ideal(Delta56,Delta12)')
([[1, 2, 3, 4], [5, 6]], 'ideal(Delta45,Delta34*Delta46)')
([[1, 3, 5, 6], [2, 4]], 'ideal(Delta34,Delta12)')
([[1, 2, 3, 5], [4, 6]], 'ideal(Delta34,Delta56)')
([[1, 2, 3, 6], [4, 5]], 'ideal(Delta34,Delta23*Delta35)')
([[1, 3, 4, 6], [2, 5]], 'ideal(Delta45,Delta12)')
([[1, 2, 5, 6, 7], [3, 4]], 'ideal(Delta23,Delta12*Delta24)')
([[1, 2, 4, 5, 6], [3, 7]], 'ideal(Delta23,Delta67)')
([[1, 2, 4, 5, 7], [3, 6]], 'ideal(Delta23,Delta56)')
([[1, 3, 4, 5, 7], [2, 6]], 'ideal(Delta56,Delta12)')
([[1, 2, 3, 4, 5]], 'ideal(0,0,0,0,0,0,0,0,0,0,0,0,0,0,0,0,0,0,0,0)')
([[1, 3, 5], [2, 4]], 'ideal(Delta34,Delta12)')
([[1, 2, 4], [3, 5]], 'ideal(Delta23,Delta45)')
([[1, 2, 3], [4, 5]], 'ideal(Delta34,Delta23*Delta35)')
([[1, 3, 4], [2, 5]], 'ideal(Delta45,Delta12)')
([[1, 2, 5], [3, 4]], 'ideal(Delta23,Delta12*Delta24)')
([[1, 3, 6], [2, 4], [5], [7]], 'ideal(Delta45,Delta34,Delta12,Delta67,Delta35,Delta47*Delta56,Delta37*Delta56,Delta37*Delta46)')
([[1, 3, 4], [2, 6], [5], [7]], 'ideal(Delta45,Delta12,Delta67,Delta34*Delta46,Delta34*Delta47,Delta47*Delta56,Delta15*Delta23*Delta34,Delta14*Delta23*Delta46,Delta14*Delta23*Delta47,Delta17*Delta23*Delta34*Delta56,Delta14*Delta23*Delta37*Delta46,Delta17*Delta23*Delta35*Delta46,Delta17*Delta25*Delta34*Delta56,Delta17*Delta24*Delta35*Delta46)')
([[1, 3, 5], [2, 4], [6], [7]], 'ideal(Delta34,Delta56,Delta12,Delta67,Delta57,Delta36*Delta45,Delta37*Delta45,Delta37*Delta46)')
([[1, 3, 6], [2, 7], [4], [5]], 'ideal(Delta45,Delta34,Delta12,Delta67,Delta35,Delta14*Delta23,Delta15*Delta23,Delta15*Delta24)')
([[1, 5, 6], [2, 7], [3], [4]], 'ideal(Delta34,Delta23,Delta12,Delta67,Delta24,Delta13,Delta14)')
([[1, 3, 5], [2, 6], [4], [7]], 'ideal(Delta34,Delta56,Delta12,Delta67,Delta57,Delta14*Delta23,Delta17*Delta23*Delta36*Delta45,Delta17*Delta24*Delta36*Delta45)')
([[1, 4, 5], [2, 6], [3], [7]], 'ideal(Delta23,Delta56,Delta12,Delta67,Delta13,Delta57,Delta17*Delta26*Delta34*Delta45)')
([[1, 3, 6], [2, 5], [4], [7]], 'ideal(Delta34,Delta12,Delta67,Delta23*Delta35,Delta13*Delta35,Delta14*Delta23,Delta37*Delta45*Delta56,Delta23*Delta37*Delta56,Delta13*Delta37*Delta56,Delta17*Delta23*Delta45*Delta56,Delta17*Delta23*Delta35*Delta56,Delta17*Delta24*Delta35*Delta56,Delta17*Delta23*Delta36*Delta45,Delta17*Delta23*Delta35*Delta36)')
([[1, 2, 5], [3, 4], [6], [7]], 'ideal(Delta23,Delta56,Delta67,Delta57,Delta12*Delta24,Delta26*Delta34*Delta45,Delta12*Delta26*Delta45,Delta27*Delta34*Delta45,Delta12*Delta27*Delta45,Delta27*Delta34*Delta46,Delta12*Delta27*Delta46,Delta27*Delta36*Delta45)')
([[1, 4, 5], [2, 7], [3], [6]], 'ideal(Delta23,Delta56,Delta12,Delta13,Delta45*Delta57,Delta26*Delta34*Delta45,Delta25*Delta34*Delta57,Delta16*Delta34*Delta45,Delta15*Delta34*Delta57,Delta16*Delta24*Delta45,Delta15*Delta24*Delta57,Delta16*Delta25*Delta34)')
([[1, 2, 3], [4, 6], [5], [7]], 'ideal(Delta45,Delta34,Delta67,Delta35,Delta23*Delta36,Delta47*Delta56,Delta23*Delta37,Delta37*Delta56,Delta37*Delta46)')
([[1, 2, 4], [3, 6], [5], [7]], 'ideal(Delta45,Delta23,Delta67,Delta34*Delta46,Delta25*Delta34,Delta24*Delta46,Delta34*Delta47,Delta47*Delta56,Delta24*Delta47,Delta27*Delta34*Delta56,Delta24*Delta37*Delta46,Delta27*Delta35*Delta46)')
([[1, 2, 4], [3, 5], [6], [7]], 'ideal(Delta45,Delta23,Delta56,Delta67,Delta46,Delta57,Delta47)')
([[1, 4, 7], [2, 6], [3], [5]], 'ideal(Delta45,Delta23,Delta12,Delta13,Delta34*Delta46,Delta25*Delta34,Delta24*Delta46,Delta15*Delta34,Delta14*Delta46,Delta15*Delta24)')
([[1, 5], [2], [3], [4], [6]], 'ideal(Delta34,Delta23,Delta12,Delta56,Delta24,Delta13,Delta14,Delta36*Delta45,Delta26*Delta45,Delta26*Delta35,Delta16*Delta45,Delta16*Delta35,Delta16*Delta25)')
([[1, 2, 4], [3, 7], [5], [6]], 'ideal(Delta45,Delta23,Delta56,Delta46,Delta25*Delta34,Delta34*Delta47,Delta26*Delta34,Delta24*Delta47,Delta26*Delta35)')
([[1, 2, 6], [3, 4], [5], [7]], 'ideal(Delta45,Delta23,Delta67,Delta12*Delta24,Delta25*Delta34,Delta12*Delta25,Delta47*Delta56,Delta27*Delta34*Delta56,Delta12*Delta27*Delta56,Delta27*Delta35*Delta56,Delta27*Delta34*Delta46,Delta12*Delta27*Delta46,Delta27*Delta35*Delta46)')
([[1, 2, 3], [4, 7], [5], [6]], 'ideal(Delta45,Delta34,Delta56,Delta35,Delta46,Delta36,Delta23*Delta37)')
([[1, 2, 6], [3, 7], [4], [5]], 'ideal(Delta45,Delta34,Delta23,Delta67,Delta35,Delta24,Delta25)')
([[1, 2, 7], [3, 6], [4], [5]], 'ideal(Delta45,Delta34,Delta23,Delta35,Delta24,Delta25,Delta12*Delta26)')
([[1], [2], [3], [4], [5]], 'ideal(Delta45,Delta35,Delta34,Delta25,Delta24,Delta23,Delta15,Delta14,Delta13,Delta12)')
([[1, 2], [3], [4], [5], [6], [7]], 'ideal(Delta34,Delta45,Delta23,Delta56,Delta67,Delta35,Delta24,Delta46,Delta57,Delta25,Delta36,Delta47,Delta26,Delta37,Delta27)')
([[1, 7], [2], [3], [4], [5], [6]], 'ideal(Delta34,Delta45,Delta23,Delta56,Delta12,Delta35,Delta24,Delta46,Delta13,Delta25,Delta36,Delta14,Delta26,Delta15,Delta16)')
([[1, 3], [2], [4], [5], [6], [7]], 'ideal(Delta34,Delta45,Delta56,Delta12,Delta67,Delta35,Delta46,Delta57,Delta36,Delta47,Delta14*Delta23,Delta37,Delta15*Delta23,Delta15*Delta24,Delta16*Delta23,Delta16*Delta24,Delta17*Delta23,Delta16*Delta25,Delta17*Delta24,Delta17*Delta25,Delta17*Delta26)')
([[1, 6], [2], [3], [4], [5], [7]], 'ideal(Delta34,Delta45,Delta23,Delta12,Delta67,Delta35,Delta24,Delta13,Delta25,Delta14,Delta47*Delta56,Delta15,Delta37*Delta56,Delta37*Delta46,Delta27*Delta56,Delta27*Delta46,Delta17*Delta56,Delta27*Delta36,Delta17*Delta46,Delta17*Delta36,Delta17*Delta26)')
([[1, 4], [2], [3], [5], [6], [7]], 'ideal(Delta45,Delta23,Delta56,Delta12,Delta67,Delta46,Delta13,Delta57,Delta47,Delta25*Delta34,Delta26*Delta34,Delta15*Delta34,Delta26*Delta35,Delta15*Delta24,Delta27*Delta34,Delta16*Delta34,Delta27*Delta35,Delta16*Delta35,Delta16*Delta24,Delta17*Delta34,Delta27*Delta36,Delta16*Delta25,Delta17*Delta35,Delta17*Delta24,Delta17*Delta25,Delta17*Delta36,Delta17*Delta26)')
([[1, 5], [2], [3], [4], [6], [7]], 'ideal(Delta34,Delta23,Delta56,Delta12,Delta67,Delta24,Delta13,Delta57,Delta14,Delta36*Delta45,Delta26*Delta45,Delta37*Delta45,Delta26*Delta35,Delta37*Delta46,Delta27*Delta45,Delta16*Delta45,Delta27*Delta35,Delta27*Delta46,Delta16*Delta35,Delta17*Delta45,Delta27*Delta36,Delta16*Delta25,Delta17*Delta35,Delta17*Delta46,Delta17*Delta25,Delta17*Delta36,Delta17*Delta26)')
([[1, 4, 5], [2], [3]], 'ideal(Delta23,Delta12,Delta13)')
([[1, 2, 4], [3], [5]], 'ideal(Delta23,Delta45,Delta25*Delta34)')
([[1, 2, 3], [4], [5]], 'ideal(Delta34,Delta45,Delta35)')
([[1, 3, 4], [2], [5]], 'ideal(Delta12,Delta45,Delta15*Delta23*Delta34)')
([[1, 2, 5], [3], [4]], 'ideal(Delta23,Delta34,Delta24)')
([[1, 3, 5], [2], [4]], 'ideal(Delta34,Delta12,Delta14*Delta23)')
([[1], [2], [3], [4]], 'ideal(Delta34,Delta24,Delta23,Delta14,Delta13,Delta12)')
([[1, 3], [2, 6], [4, 7], [5]], 'ideal(Delta45,Delta34,Delta12,Delta67,Delta35,Delta23*Delta36,Delta14*Delta23,Delta23*Delta37,Delta15*Delta23,Delta13*Delta36,Delta15*Delta24,Delta13*Delta37)')
([[1, 3], [2, 4], [5, 6], [7]], 'ideal(Delta45,Delta34,Delta12,Delta67,Delta35,Delta23*Delta36,Delta47*Delta56,Delta23*Delta37,Delta37*Delta56,Delta13*Delta36,Delta37*Delta46,Delta13*Delta37)')
([[1, 4], [2, 6], [3, 7], [5]], 'ideal(Delta45,Delta23,Delta12,Delta67,Delta13,Delta34*Delta46,Delta25*Delta34,Delta24*Delta46,Delta34*Delta47,Delta47*Delta56,Delta24*Delta47,Delta15*Delta34,Delta14*Delta46,Delta15*Delta24,Delta14*Delta47)')
([[1, 4], [2, 5], [3, 6], [7]], 'ideal(Delta45,Delta23,Delta56,Delta12,Delta67,Delta46,Delta13,Delta57,Delta47)')
([[1, 2], [3, 4], [5, 6], [7]], 'ideal(Delta45,Delta23,Delta67,Delta34*Delta46,Delta12*Delta24,Delta25*Delta34,Delta24*Delta46,Delta12*Delta25,Delta34*Delta47,Delta47*Delta56,Delta24*Delta47,Delta12*Delta26,Delta12*Delta27,Delta27*Delta34*Delta56,Delta24*Delta37*Delta46,Delta27*Delta35*Delta46)')
([[1, 2], [3, 6], [4, 7], [5]], 'ideal(Delta45,Delta34,Delta23,Delta67,Delta35,Delta24,Delta25,Delta12*Delta26,Delta12*Delta27)')
([[1, 3], [2, 5], [4, 7], [6]], 'ideal(Delta34,Delta56,Delta12,Delta23*Delta35,Delta45*Delta57,Delta36*Delta45,Delta23*Delta36,Delta35*Delta57,Delta13*Delta35,Delta14*Delta23,Delta13*Delta36,Delta23*Delta37,Delta13*Delta37,Delta16*Delta23*Delta45,Delta16*Delta23*Delta35,Delta16*Delta24*Delta35)')
([[1, 3], [2, 5], [4, 6], [7]], 'ideal(Delta34,Delta56,Delta12,Delta67,Delta57,Delta23*Delta35,Delta36*Delta45,Delta23*Delta36,Delta13*Delta35,Delta14*Delta23,Delta13*Delta36,Delta37*Delta45,Delta23*Delta37,Delta37*Delta46,Delta13*Delta37)')
([[1, 2], [3, 5], [4, 6], [7]], 'ideal(Delta34,Delta23,Delta56,Delta67,Delta24,Delta57,Delta12*Delta25,Delta12*Delta26,Delta12*Delta27,Delta27*Delta36*Delta45)')
([[1, 5], [2, 6], [3, 7], [4]], 'ideal(Delta34,Delta23,Delta56,Delta12,Delta67,Delta24,Delta13,Delta57,Delta14)')
([[1, 2, 3, 4, 6, 7], [5]], 'ideal(Delta45)')
([[1, 2, 3, 5, 6, 7], [4]], 'ideal(Delta34)')
([[1, 2, 3, 4, 5, 6], [7]], 'ideal(Delta67)')
([[1, 2, 3, 4, 5, 7], [6]], 'ideal(Delta56)')
([[1, 2, 4, 5, 6, 7], [3]], 'ideal(Delta23)')
([[1, 3, 4, 5, 6, 7], [2]], 'ideal(Delta12)')
([[1, 3, 4], [2, 5], [6], [7]], 'ideal(Delta45,Delta56,Delta12,Delta67,Delta46,Delta57,Delta47)')
([[1, 4, 6], [2, 5], [3], [7]], 'ideal(Delta45,Delta23,Delta12,Delta67,Delta13,Delta47*Delta56,Delta17*Delta25*Delta34*Delta56,Delta17*Delta25*Delta34*Delta46)')
([[1, 4, 6], [2, 7], [3], [5]], 'ideal(Delta45,Delta23,Delta12,Delta67,Delta13,Delta25*Delta34,Delta15*Delta34,Delta15*Delta24)')
([[1, 5, 7], [2, 6], [3], [4]], 'ideal(Delta34,Delta23,Delta56,Delta12,Delta24,Delta13,Delta14)')
([[1, 3, 5], [2, 7], [4], [6]], 'ideal(Delta34,Delta56,Delta12,Delta45*Delta57,Delta36*Delta45,Delta35*Delta57,Delta14*Delta23,Delta16*Delta23*Delta45,Delta15*Delta23*Delta57,Delta16*Delta23*Delta35,Delta16*Delta24*Delta45,Delta15*Delta24*Delta57,Delta16*Delta24*Delta35)')
([[1, 3, 7], [2, 4], [5], [6]], 'ideal(Delta45,Delta34,Delta56,Delta12,Delta35,Delta46,Delta36)')
([[1, 3, 7], [2, 5], [4], [6]], 'ideal(Delta34,Delta56,Delta12,Delta23*Delta35,Delta36*Delta45,Delta23*Delta36,Delta13*Delta35,Delta14*Delta23,Delta13*Delta36,Delta16*Delta23*Delta45,Delta16*Delta23*Delta35,Delta16*Delta24*Delta35)')
([[1, 3, 7], [2, 6], [4], [5]], 'ideal(Delta45,Delta34,Delta12,Delta35,Delta23*Delta36,Delta14*Delta23,Delta15*Delta23,Delta13*Delta36,Delta15*Delta24)')
([[1, 3, 4], [2, 7], [5], [6]], 'ideal(Delta45,Delta56,Delta12,Delta46,Delta34*Delta47,Delta15*Delta23*Delta34,Delta16*Delta23*Delta34,Delta14*Delta23*Delta47,Delta16*Delta23*Delta35,Delta16*Delta25*Delta34)')
([[1, 4, 7], [2, 5], [3], [6]], 'ideal(Delta45,Delta23,Delta56,Delta12,Delta46,Delta13,Delta16*Delta25*Delta34)')
([[1, 3], [2, 5], [4], [6]], 'ideal(Delta34,Delta12,Delta56,Delta23*Delta35,Delta23*Delta36,Delta36*Delta45,Delta14*Delta23,Delta13*Delta35,Delta13*Delta36,Delta16*Delta23*Delta45,Delta16*Delta23*Delta35,Delta16*Delta24*Delta35)')
([[1, 4], [2, 5], [3], [6]], 'ideal(Delta23,Delta45,Delta12,Delta56,Delta13,Delta46,Delta16*Delta25*Delta34)')
([[1, 3], [2, 4], [5], [6]], 'ideal(Delta34,Delta45,Delta12,Delta56,Delta35,Delta46,Delta36)')
([[1, 5], [2, 6], [3], [4]], 'ideal(Delta34,Delta23,Delta12,Delta56,Delta24,Delta13,Delta14)')
([[1, 2], [3, 6], [4], [5]], 'ideal(Delta34,Delta23,Delta45,Delta35,Delta24,Delta25,Delta12*Delta26)')
([[1, 3], [2, 6], [4], [5]], 'ideal(Delta34,Delta45,Delta12,Delta35,Delta23*Delta36,Delta14*Delta23,Delta15*Delta23,Delta13*Delta36,Delta15*Delta24)')
([[1, 3, 5], [2, 4], [6, 7]], 'ideal(Delta34,Delta56,Delta12,Delta45*Delta57,Delta36*Delta45,Delta35*Delta57,-Delta14*Delta23*Delta37*Delta45,Delta14*Delta23*Delta37*Delta46)')
([[1, 4, 6], [2, 5], [3, 7]], 'ideal(Delta45,Delta23,Delta12,Delta67,Delta13,Delta47*Delta56)')
([[1, 3, 4], [2, 6], [5, 7]], 'ideal(Delta45,Delta12,Delta67,Delta34*Delta46,Delta34*Delta47,Delta47*Delta56,Delta15*Delta23*Delta34,Delta14*Delta23*Delta46,Delta14*Delta23*Delta47)')
([[1, 3, 6], [2, 4], [5, 7]], 'ideal(Delta45,Delta34,Delta12,Delta67,Delta35,Delta14*Delta23*Delta37*Delta46)')
([[1, 3, 5], [2, 6], [4, 7]], 'ideal(Delta34,Delta56,Delta12,Delta67,Delta57,Delta14*Delta23)')
([[1, 3, 6], [2, 5], [4, 7]], 'ideal(Delta34,Delta12,Delta67,Delta23*Delta35,Delta13*Delta35,Delta14*Delta23,Delta37*Delta45*Delta56,Delta23*Delta37*Delta56,Delta13*Delta37*Delta56)')
([[1, 4, 5], [2, 6], [3, 7]], 'ideal(Delta56,Delta23,Delta12,Delta67,Delta57,Delta13)')
([[1, 2, 5], [3, 4], [6, 7]], 'ideal(Delta56,Delta23,Delta45*Delta57,Delta12*Delta24,Delta26*Delta34*Delta45,Delta12*Delta26*Delta45,Delta25*Delta34*Delta57,Delta12*Delta25*Delta57,Delta12*Delta27*Delta34*Delta45,Delta12*Delta27*Delta34*Delta46,Delta12*Delta24*Delta27*Delta45,Delta12*Delta24*Delta27*Delta46)')
([[1, 3, 7], [2, 4], [5, 6]], 'ideal(Delta45,Delta34,Delta12,Delta35,Delta23*Delta36,Delta13*Delta36)')
([[1, 3, 7], [2, 5], [4, 6]], 'ideal(Delta34,Delta56,Delta12,Delta23*Delta35,Delta36*Delta45,Delta23*Delta36,Delta13*Delta35,Delta14*Delta23,Delta13*Delta36)')
([[1, 2], [3], [4]], 'ideal(Delta23,Delta34,Delta24)')
([[1, 3], [2], [4]], 'ideal(Delta12,Delta34,Delta14*Delta23)')
([[1, 3, 5], [2], [4], [6], [7]], 'ideal(Delta34,Delta56,Delta12,Delta67,Delta57,Delta36*Delta45,Delta14*Delta23,Delta37*Delta45,Delta37*Delta46,Delta16*Delta23*Delta45,Delta16*Delta23*Delta35,Delta16*Delta24*Delta45,Delta17*Delta23*Delta45,Delta16*Delta24*Delta35,Delta17*Delta23*Delta35,Delta17*Delta24*Delta45,Delta17*Delta23*Delta46,Delta17*Delta24*Delta35,Delta17*Delta24*Delta46,Delta17*Delta23*Delta36,Delta17*Delta24*Delta36,Delta17*Delta26*Delta45,Delta17*Delta26*Delta35)')
([[1, 3, 7], [2], [4], [5], [6]], 'ideal(Delta34,Delta45,Delta56,Delta12,Delta35,Delta46,Delta36,Delta14*Delta23,Delta15*Delta23,Delta15*Delta24,Delta16*Delta23,Delta16*Delta24,Delta16*Delta25)')
([[1, 2, 5], [3], [4], [6], [7]], 'ideal(Delta34,Delta23,Delta56,Delta67,Delta24,Delta57,Delta36*Delta45,Delta26*Delta45,Delta37*Delta45,Delta26*Delta35,Delta37*Delta46,Delta27*Delta45,Delta27*Delta35,Delta27*Delta46,Delta27*Delta36)')
([[1, 5, 6], [2], [3], [4], [7]], 'ideal(Delta34,Delta23,Delta12,Delta67,Delta24,Delta13,Delta14,Delta37*Delta45*Delta56,Delta27*Delta45*Delta56,Delta27*Delta35*Delta56,Delta17*Delta45*Delta56,Delta27*Delta36*Delta45,Delta17*Delta35*Delta56,Delta17*Delta36*Delta45,Delta17*Delta25*Delta56,Delta17*Delta26*Delta45,Delta17*Delta26*Delta35)')
([[1, 2, 3], [4, 5, 6]], 'ideal(Delta34,Delta23*Delta35,Delta12*Delta23*Delta36)')
([[1, 5, 7], [2], [3], [4], [6]], 'ideal(Delta34,Delta23,Delta56,Delta12,Delta24,Delta13,Delta14,Delta36*Delta45,Delta26*Delta45,Delta26*Delta35,Delta16*Delta45,Delta16*Delta35,Delta16*Delta25)')
([[1, 3, 4], [2, 5, 6]], 'ideal(Delta45,Delta12,Delta34*Delta46)')
([[1, 2, 5], [3, 4, 6]], 'ideal(Delta23,Delta56,Delta12*Delta24)')
([[1, 2, 3, 6], [4, 7], [5]], 'ideal(Delta34,Delta45,Delta67,Delta35)')
([[1, 2, 3, 7], [4, 6], [5]], 'ideal(Delta34,Delta45,Delta35,Delta23*Delta36)')
([[1, 2, 6, 7], [3, 5], [4]], 'ideal(Delta34,Delta23,Delta24,Delta12*Delta25)')
([[1, 2, 3, 6], [4, 5], [7]], 'ideal(Delta34,Delta67,Delta23*Delta35,Delta37*Delta45*Delta56,Delta23*Delta37*Delta56)')
([[1, 2, 5, 6], [3, 7], [4]], 'ideal(Delta34,Delta23,Delta67,Delta24)')
([[1, 3, 4, 6, 7], [2, 5]], 'ideal(Delta45,Delta12)')
([[1, 2, 3, 4, 5], [6, 7]], 'ideal(Delta56,Delta45*Delta57)')
([[1, 3, 4, 5, 6], [2, 7]], 'ideal(Delta67,Delta12)')
([[1, 2, 3, 6, 7], [4, 5]], 'ideal(Delta34,Delta23*Delta35)')
([[1, 2, 3, 5, 7], [4, 6]], 'ideal(Delta56,Delta34)')
([[1, 2, 3, 5, 6], [4, 7]], 'ideal(Delta34,Delta67)')
([[1, 3, 5, 6, 7], [2, 4]], 'ideal(Delta34,Delta12)')
([[1, 2, 3, 4, 7], [5, 6]], 'ideal(Delta45,Delta34*Delta46)')
([[1, 2, 4, 6, 7], [3, 5]], 'ideal(Delta23,Delta45)')
([[1, 2, 3, 4, 6], [5, 7]], 'ideal(Delta45,Delta67)')
([[1, 3], [2, 5], [4], [6], [7]], 'ideal(Delta34,Delta56,Delta12,Delta67,Delta57,Delta23*Delta35,Delta36*Delta45,Delta23*Delta36,Delta13*Delta35,Delta14*Delta23,Delta13*Delta36,Delta37*Delta45,Delta23*Delta37,Delta37*Delta46,Delta13*Delta37,Delta16*Delta23*Delta45,Delta16*Delta23*Delta35,Delta17*Delta23*Delta45,Delta16*Delta24*Delta35,Delta17*Delta23*Delta35,Delta17*Delta23*Delta46,Delta17*Delta24*Delta35,Delta13*Delta27*Delta36,Delta17*Delta24*Delta36,Delta17*Delta26*Delta45,Delta17*Delta26*Delta35)')
([[1, 6], [2, 7], [3], [4], [5]], 'ideal(Delta34,Delta45,Delta23,Delta12,Delta67,Delta35,Delta24,Delta13,Delta25,Delta14,Delta15)')
([[1, 2], [3, 7], [4], [5], [6]], 'ideal(Delta34,Delta45,Delta23,Delta56,Delta35,Delta24,Delta46,Delta36,Delta25,Delta26,Delta12*Delta27)')
([[1, 3], [2, 6], [4], [5], [7]], 'ideal(Delta34,Delta45,Delta12,Delta67,Delta35,Delta23*Delta36,Delta14*Delta23,Delta47*Delta56,Delta23*Delta37,Delta37*Delta56,Delta15*Delta23,Delta13*Delta36,Delta37*Delta46,Delta15*Delta24,Delta13*Delta37,Delta17*Delta23*Delta56,Delta17*Delta24*Delta56,Delta17*Delta23*Delta46,Delta17*Delta24*Delta46,Delta17*Delta23*Delta36,Delta17*Delta24*Delta36,Delta17*Delta25*Delta46,Delta17*Delta25*Delta36)')
([[1, 2], [3, 6], [4], [5], [7]], 'ideal(Delta34,Delta45,Delta23,Delta67,Delta35,Delta24,Delta25,Delta47*Delta56,Delta37*Delta56,Delta12*Delta26,Delta37*Delta46,Delta27*Delta56,Delta12*Delta27,Delta27*Delta46,Delta27*Delta36)')
([[1, 3], [2, 4]], 'ideal(Delta34,Delta12)')
([[1, 2], [3, 4]], 'ideal(Delta23,Delta12*Delta24)')
([[1, 2, 3, 4]], 'ideal(0,0,0,0,0,0,0,0,0,0,0,0,0,0)')
([[1, 2], [3, 5], [4], [6], [7]], 'ideal(Delta34,Delta23,Delta56,Delta67,Delta24,Delta57,Delta36*Delta45,Delta12*Delta25,Delta26*Delta45,Delta12*Delta26,Delta37*Delta45,Delta26*Delta35,Delta37*Delta46,Delta27*Delta45,Delta12*Delta27,Delta27*Delta35,Delta27*Delta46,Delta27*Delta36)')
([[1, 3], [2, 7], [4], [5], [6]], 'ideal(Delta34,Delta45,Delta56,Delta12,Delta35,Delta46,Delta36,Delta14*Delta23,Delta23*Delta37,Delta15*Delta23,Delta15*Delta24,Delta16*Delta23,Delta13*Delta37,Delta16*Delta24,Delta16*Delta25)')
([[1, 4], [2], [3]], 'ideal(Delta12,Delta23,Delta13)')
([[1, 2], [3, 4], [5], [6], [7]], 'ideal(Delta45,Delta23,Delta56,Delta67,Delta46,Delta57,Delta12*Delta24,Delta47,Delta25*Delta34,Delta12*Delta25,Delta26*Delta34,Delta12*Delta26,Delta26*Delta35,Delta27*Delta34,Delta12*Delta27,Delta27*Delta35,Delta27*Delta36)')
([[1, 4], [2, 6], [3], [5], [7]], 'ideal(Delta45,Delta23,Delta12,Delta67,Delta13,Delta34*Delta46,Delta25*Delta34,Delta24*Delta46,Delta34*Delta47,Delta47*Delta56,Delta24*Delta47,Delta15*Delta34,Delta14*Delta46,Delta15*Delta24,Delta14*Delta47,Delta27*Delta34*Delta56,Delta24*Delta37*Delta46,Delta17*Delta34*Delta56,Delta27*Delta35*Delta46,Delta14*Delta37*Delta46,Delta17*Delta24*Delta56,Delta17*Delta35*Delta46,Delta17*Delta24*Delta46,Delta17*Delta25*Delta46,Delta17*Delta26*Delta34,Delta17*Delta26*Delta35)')
([[1, 4], [2, 5], [3], [6], [7]], 'ideal(Delta45,Delta23,Delta56,Delta12,Delta67,Delta46,Delta13,Delta57,Delta47,Delta16*Delta25*Delta34,Delta17*Delta25*Delta34,Delta17*Delta26*Delta34,Delta17*Delta26*Delta35)')
([[1, 4], [2, 7], [3], [5], [6]], 'ideal(Delta45,Delta23,Delta56,Delta12,Delta46,Delta13,Delta25*Delta34,Delta34*Delta47,Delta26*Delta34,Delta24*Delta47,Delta15*Delta34,Delta26*Delta35,Delta15*Delta24,Delta16*Delta34,Delta14*Delta47,Delta16*Delta35,Delta16*Delta24,Delta16*Delta25)')
([[1, 5], [2, 6], [3], [4], [7]], 'ideal(Delta34,Delta23,Delta56,Delta12,Delta67,Delta24,Delta13,Delta57,Delta14,Delta27*Delta36*Delta45,Delta17*Delta36*Delta45,Delta17*Delta26*Delta45,Delta17*Delta26*Delta35)')
([[1, 2, 5], [3, 4, 6], [7]], 'ideal(Delta23,Delta56,Delta67,Delta57,Delta12*Delta24)')
([[1, 5], [2, 7], [3], [4], [6]], 'ideal(Delta34,Delta23,Delta56,Delta12,Delta24,Delta13,Delta45*Delta57,Delta14,Delta36*Delta45,Delta35*Delta57,Delta26*Delta45,Delta25*Delta57,Delta26*Delta35,Delta16*Delta45,Delta15*Delta57,Delta16*Delta35,Delta16*Delta25)')
([[1, 3], [2, 4], [5], [6], [7]], 'ideal(Delta34,Delta45,Delta56,Delta12,Delta67,Delta35,Delta46,Delta57,Delta36,Delta47,Delta37)')
([[1, 2, 3], [4, 5, 7], [6]], 'ideal(Delta34,Delta56,Delta23*Delta35,Delta36*Delta45,Delta23*Delta36,Delta12*Delta23*Delta37)')
([[1, 2, 3, 5, 7], [4], [6]], 'ideal(Delta56,Delta34,Delta36*Delta45)')
